Ivan Ivanov, Иванов Иван Иванович, ivan.ivanov@email.com
Petr Petrov, Петров Петр Петрович, petr.petrov@email.com
Sidor Sidorov, Сидоров Сидор Сидорович, sidor.sidorov@email.com
Some Surname,,some.some@email.com
